FPGA-Assgn2/dump1.vcd
$date
	Wed Jun 08 11:19:41 2022
$end
$version
	Icarus Verilog
$end
$timescale
	1ns
$end
$scope module tb $end
$var reg 1 ! clk $end
$var reg 5 " i1 [4:0] $end
$var reg 5 # i2 [4:0] $end
$var reg 32 $ num [31:0] $end
$scope module uut $end
$var wire 1 ! clk $end
$var wire 5 % index1 [4:0] $end
$var wire 5 & index2 [4:0] $end
$var wire 32 ' num [31:0] $end
$var wire 1 ( status $end
$var reg 32 ) curr [31:0] $end
$var reg 5 * curr_index [4:0] $end
$var reg 32 + in_num [31:0] $end
$var reg 1 , stat $end
$var integer 32 - k [31:0] $end
$scope module m1 $end
$var integer 32 . i [31:0] $end
$upscope $end
$scope module m2 $end
$upscope $end
$scope begin $ivl_for_loop0 $end
$var integer 32 / j [31:0] $end
$upscope $end
$scope begin $ivl_for_loop1 $end
$var integer 32 0 j [31:0] $end
$upscope $end
$upscope $end
$scope begin $ivl_for_loop10 $end
$var integer 32 1 i [31:0] $end
$upscope $end
$scope begin $ivl_for_loop11 $end
$var integer 32 2 i [31:0] $end
$upscope $end
$scope begin $ivl_for_loop2 $end
$var integer 32 3 i [31:0] $end
$upscope $end
$scope begin $ivl_for_loop3 $end
$var integer 32 4 i [31:0] $end
$upscope $end
$scope begin $ivl_for_loop4 $end
$var integer 32 5 i [31:0] $end
$upscope $end
$scope begin $ivl_for_loop5 $end
$var integer 32 6 i [31:0] $end
$upscope $end
$scope begin $ivl_for_loop6 $end
$var integer 32 7 i [31:0] $end
$upscope $end
$scope begin $ivl_for_loop7 $end
$var integer 32 8 i [31:0] $end
$upscope $end
$scope begin $ivl_for_loop8 $end
$var integer 32 9 i [31:0] $end
$upscope $end
$scope begin $ivl_for_loop9 $end
$var integer 32 : i [31:0] $end
$upscope $end
$upscope $end
$enddefinitions $end
#0
$dumpvars
bx :
bx 9
bx 8
bx 7
bx 6
bx 5
bx 4
bx 3
bx 2
bx 1
bx 0
b1011 /
b10100 .
b0 -
1,
bx +
bx *
bx )
1(
b1000110 '
b1010 &
b0 %
b1000110 $
b1010 #
b0 "
1!
$end
#1
b1011 0
0(
0!
#2
b1011 /
1(
1!
#3
b1011 0
0(
0!
#4
b1011 /
1(
1!
#5
b1011 0
0(
0!
#6
b1011 /
1(
1!
#7
b1011 0
0(
0!
#8
b1011 /
1(
1!
#9
b1011 0
0(
0!
#10
b1011 /
1(
1!
#11
b1011 0
0(
0!
#12
b1011 /
1(
1!
#13
b1011 0
0(
0!
#14
b1011 /
1(
1!
#15
b1011 0
0(
0!
#16
b1011 /
1(
1!
#17
b1011 0
0(
0!
#18
b1011 /
1(
1!
#19
b1011 0
0(
0!
#20
b1011 /
1(
1!
#21
b1011 0
0(
0!
#22
b1011 /
1(
1!
#23
b1011 0
0(
0!
#24
b1011 /
1(
1!
#25
b1011 0
0(
0!
#26
b1011 /
1(
1!
#27
b1011 0
0(
0!
#28
b1011 /
1(
1!
#29
b1011 0
0(
0!
#30
b1011 /
1(
1!
#31
b1011 0
0(
0!
#32
b1011 /
1(
1!
#33
b1011 0
0(
0!
#34
b1011 /
1(
1!
#35
b1011 0
0(
0!
#36
b1011 /
1(
1!
#37
b1011 0
0(
0!
#38
b1011 /
1(
1!
#39
b1011 0
0(
0!
#40
b1011 /
1(
1!
#41
b1011 0
0(
0!
#42
b1011 /
1(
1!
#43
b1011 0
0(
0!
#44
b1011 /
1(
1!
#45
b1011 0
0(
0!
#46
b1011 /
1(
1!
#47
b1011 0
0(
0!
#48
b1011 /
1(
1!
#49
b1011 0
0(
0!
#50
b1011 /
1(
1!
#51
b1011 0
0(
0!
#52
b1011 /
1(
1!
#53
b1011 0
0(
0!
#54
b1011 /
1(
1!
#55
b1011 0
0(
0!
#56
b1011 /
1(
1!
#57
b1011 0
0(
0!
#58
b1011 /
1(
1!
#59
b1011 0
0(
0!
#60
b1011 /
1(
1!
#61
b1011 0
0(
0!
#62
b1011 /
1(
1!
#63
b1011 0
0(
0!
#64
b1011 /
1(
1!
#65
b1011 0
0(
0!
#66
b1011 /
1(
1!
#67
b1011 0
0(
0!
#68
b1011 /
1(
1!
#69
b1011 0
0(
0!
#70
b1011 /
1(
1!
#71
b1011 0
0(
0!
#72
b1011 /
1(
1!
#73
b1011 0
0(
0!
#74
b1011 /
1(
1!
#75
b1011 0
0(
0!
#76
b1011 /
1(
1!
#77
b1011 0
0(
0!
#78
b1011 /
1(
1!
#79
b1011 0
0(
0!
#80
b1011 /
1(
1!
#81
b1011 0
0(
0!
#82
b1011 /
1(
1!
#83
b1011 0
0(
0!
#84
b1011 /
1(
1!
#85
b1011 0
0(
0!
#86
b1011 /
1(
1!
#87
b1011 0
0(
0!
#88
b1011 /
1(
1!
#89
b1011 0
0(
0!
#90
b1011 /
1(
1!
#91
b1011 0
0(
0!
#92
b1011 /
1(
1!
#93
b1011 0
0(
0!
#94
b1011 /
1(
1!
#95
b1011 0
0(
0!
#96
b1011 /
1(
1!
#97
b1011 0
0(
0!
#98
b1011 /
1(
1!
#99
b1011 0
0(
0!
#100
b1011 /
1(
1!
b10 #
b10 &
b1000 "
b1000 %
b1010010 $
b1010010 '
b10100 4
b10100 3
#101
b1011 0
0(
0!
#102
b1011 /
1(
1!
#103
b1011 0
0(
0!
#104
b1011 /
1(
1!
#105
b1011 0
0(
0!
#106
b1011 /
1(
1!
#107
b1011 0
0(
0!
#108
b1011 /
1(
1!
#109
b1011 0
0(
0!
#110
b1011 /
1(
1!
#111
b1011 0
0(
0!
#112
b1011 /
1(
1!
#113
b1011 0
0(
0!
#114
b1011 /
1(
1!
#115
b1011 0
0(
0!
#116
b1011 /
1(
1!
#117
b1011 0
0(
0!
#118
b1011 /
1(
1!
#119
b1011 0
0(
0!
#120
b1011 /
1(
1!
#121
b1011 0
0(
0!
#122
b1011 /
1(
1!
#123
b1011 0
0(
0!
#124
b1011 /
1(
1!
#125
b1011 0
0(
0!
#126
b1011 /
1(
1!
#127
b1011 0
0(
0!
#128
b1011 /
1(
1!
#129
b1011 0
0(
0!
#130
b1011 /
1(
1!
#131
b1011 0
0(
0!
#132
b1011 /
1(
1!
#133
b1011 0
0(
0!
#134
b1011 /
1(
1!
#135
b1011 0
0(
0!
#136
b1011 /
1(
1!
#137
b1011 0
0(
0!
#138
b1011 /
1(
1!
#139
b1011 0
0(
0!
#140
b1011 /
1(
1!
#141
b1011 0
0(
0!
#142
b1011 /
1(
1!
#143
b1011 0
0(
0!
#144
b1011 /
1(
1!
#145
b1011 0
0(
0!
#146
b1011 /
1(
1!
#147
b1011 0
0(
0!
#148
b1011 /
1(
1!
#149
b1011 0
0(
0!
#150
b1011 /
1(
1!
#151
b1011 0
0(
0!
#152
b1011 /
1(
1!
#153
b1011 0
0(
0!
#154
b1011 /
1(
1!
#155
b1011 0
0(
0!
#156
b1011 /
1(
1!
#157
b1011 0
0(
0!
#158
b1011 /
1(
1!
#159
b1011 0
0(
0!
#160
b1011 /
1(
1!
#161
b1011 0
0(
0!
#162
b1011 /
1(
1!
#163
b1011 0
0(
0!
#164
b1011 /
1(
1!
#165
b1011 0
0(
0!
#166
b1011 /
1(
1!
#167
b1011 0
0(
0!
#168
b1011 /
1(
1!
#169
b1011 0
0(
0!
#170
b1011 /
1(
1!
#171
b1011 0
0(
0!
#172
b1011 /
1(
1!
#173
b1011 0
0(
0!
#174
b1011 /
1(
1!
#175
b1011 0
0(
0!
#176
b1011 /
1(
1!
#177
b1011 0
0(
0!
#178
b1011 /
1(
1!
#179
b1011 0
0(
0!
#180
b1011 /
1(
1!
#181
b1011 0
0(
0!
#182
b1011 /
1(
1!
#183
b1011 0
0(
0!
#184
b1011 /
1(
1!
#185
b1011 0
0(
0!
#186
b1011 /
1(
1!
#187
b1011 0
0(
0!
#188
b1011 /
1(
1!
#189
b1011 0
0(
0!
#190
b1011 /
1(
1!
#191
b1011 0
0(
0!
#192
b1011 /
1(
1!
#193
b1011 0
0(
0!
#194
b1011 /
1(
1!
#195
b1011 0
0(
0!
#196
b1011 /
1(
1!
#197
b1011 0
0(
0!
#198
b1011 /
1(
1!
#199
b1011 0
0(
0!
#200
b1011 /
1(
1!
b10011 #
b10011 &
b1011 "
b1011 %
b1011 $
b1011 '
b10100 6
b10100 5
#201
b1011 0
0(
0!
#202
b1011 /
1(
1!
#203
b1011 0
0(
0!
#204
b1011 /
1(
1!
#205
b1011 0
0(
0!
#206
b1011 /
1(
1!
#207
b1011 0
0(
0!
#208
b1011 /
1(
1!
#209
b1011 0
0(
0!
#210
b1011 /
1(
1!
#211
b1011 0
0(
0!
#212
b1011 /
1(
1!
#213
b1011 0
0(
0!
#214
b1011 /
1(
1!
#215
b1011 0
0(
0!
#216
b1011 /
1(
1!
#217
b1011 0
0(
0!
#218
b1011 /
1(
1!
#219
b1011 0
0(
0!
#220
b1011 /
1(
1!
#221
b1011 0
0(
0!
#222
b1011 /
1(
1!
#223
b1011 0
0(
0!
#224
b1011 /
1(
1!
#225
b1011 0
0(
0!
#226
b1011 /
1(
1!
#227
b1011 0
0(
0!
#228
b1011 /
1(
1!
#229
b1011 0
0(
0!
#230
b1011 /
1(
1!
#231
b1011 0
0(
0!
#232
b1011 /
1(
1!
#233
b1011 0
0(
0!
#234
b1011 /
1(
1!
#235
b1011 0
0(
0!
#236
b1011 /
1(
1!
#237
b1011 0
0(
0!
#238
b1011 /
1(
1!
#239
b1011 0
0(
0!
#240
b1011 /
1(
1!
#241
b1011 0
0(
0!
#242
b1011 /
1(
1!
#243
b1011 0
0(
0!
#244
b1011 /
1(
1!
#245
b1011 0
0(
0!
#246
b1011 /
1(
1!
#247
b1011 0
0(
0!
#248
b1011 /
1(
1!
#249
b1011 0
0(
0!
#250
b1011 /
1(
1!
#251
b1011 0
0(
0!
#252
b1011 /
1(
1!
#253
b1011 0
0(
0!
#254
b1011 /
1(
1!
#255
b1011 0
0(
0!
#256
b1011 /
1(
1!
#257
b1011 0
0(
0!
#258
b1011 /
1(
1!
#259
b1011 0
0(
0!
#260
b1011 /
1(
1!
#261
b1011 0
0(
0!
#262
b1011 /
1(
1!
#263
b1011 0
0(
0!
#264
b1011 /
1(
1!
#265
b1011 0
0(
0!
#266
b1011 /
1(
1!
#267
b1011 0
0(
0!
#268
b1011 /
1(
1!
#269
b1011 0
0(
0!
#270
b1011 /
1(
1!
#271
b1011 0
0(
0!
#272
b1011 /
1(
1!
#273
b1011 0
0(
0!
#274
b1011 /
1(
1!
#275
b1011 0
0(
0!
#276
b1011 /
1(
1!
#277
b1011 0
0(
0!
#278
b1011 /
1(
1!
#279
b1011 0
0(
0!
#280
b1011 /
1(
1!
#281
b1011 0
0(
0!
#282
b1011 /
1(
1!
#283
b1011 0
0(
0!
#284
b1011 /
1(
1!
#285
b1011 0
0(
0!
#286
b1011 /
1(
1!
#287
b1011 0
0(
0!
#288
b1011 /
1(
1!
#289
b1011 0
0(
0!
#290
b1011 /
1(
1!
#291
b1011 0
0(
0!
#292
b1011 /
1(
1!
#293
b1011 0
0(
0!
#294
b1011 /
1(
1!
#295
b1011 0
0(
0!
#296
b1011 /
1(
1!
#297
b1011 0
0(
0!
#298
b1011 /
1(
1!
#299
b1011 0
0(
0!
#300
b1011 /
1(
1!
b1011 #
b1011 &
b1011011 $
b1011011 '
b10100 8
b10100 7
#301
b1011 0
0(
0!
#302
b1011 /
1(
1!
#303
b1011 0
0(
0!
#304
b1011 /
1(
1!
#305
b1011 0
0(
0!
#306
b1011 /
1(
1!
#307
b1011 0
0(
0!
#308
b1011 /
1(
1!
#309
b1011 0
0(
0!
#310
b1011 /
1(
1!
#311
b1011 0
0(
0!
#312
b1011 /
1(
1!
#313
b1011 0
0(
0!
#314
b1011 /
1(
1!
#315
b1011 0
0(
0!
#316
b1011 /
1(
1!
#317
b1011 0
0(
0!
#318
b1011 /
1(
1!
#319
b1011 0
0(
0!
#320
b1011 /
1(
1!
#321
b1011 0
0(
0!
#322
b1011 /
1(
1!
#323
b1011 0
0(
0!
#324
b1011 /
1(
1!
#325
b1011 0
0(
0!
#326
b1011 /
1(
1!
#327
b1011 0
0(
0!
#328
b1011 /
1(
1!
#329
b1011 0
0(
0!
#330
b1011 /
1(
1!
#331
b1011 0
0(
0!
#332
b1011 /
1(
1!
#333
b1011 0
0(
0!
#334
b1011 /
1(
1!
#335
b1011 0
0(
0!
#336
b1011 /
1(
1!
#337
b1011 0
0(
0!
#338
b1011 /
1(
1!
#339
b1011 0
0(
0!
#340
b1011 /
1(
1!
#341
b1011 0
0(
0!
#342
b1011 /
1(
1!
#343
b1011 0
0(
0!
#344
b1011 /
1(
1!
#345
b1011 0
0(
0!
#346
b1011 /
1(
1!
#347
b1011 0
0(
0!
#348
b1011 /
1(
1!
#349
b1011 0
0(
0!
#350
b1011 /
1(
1!
#351
b1011 0
0(
0!
#352
b1011 /
1(
1!
#353
b1011 0
0(
0!
#354
b1011 /
1(
1!
#355
b1011 0
0(
0!
#356
b1011 /
1(
1!
#357
b1011 0
0(
0!
#358
b1011 /
1(
1!
#359
b1011 0
0(
0!
#360
b1011 /
1(
1!
#361
b1011 0
0(
0!
#362
b1011 /
1(
1!
#363
b1011 0
0(
0!
#364
b1011 /
1(
1!
#365
b1011 0
0(
0!
#366
b1011 /
1(
1!
#367
b1011 0
0(
0!
#368
b1011 /
1(
1!
#369
b1011 0
0(
0!
#370
b1011 /
1(
1!
#371
b1011 0
0(
0!
#372
b1011 /
1(
1!
#373
b1011 0
0(
0!
#374
b1011 /
1(
1!
#375
b1011 0
0(
0!
#376
b1011 /
1(
1!
#377
b1011 0
0(
0!
#378
b1011 /
1(
1!
#379
b1011 0
0(
0!
#380
b1011 /
1(
1!
#381
b1011 0
0(
0!
#382
b1011 /
1(
1!
#383
b1011 0
0(
0!
#384
b1011 /
1(
1!
#385
b1011 0
0(
0!
#386
b1011 /
1(
1!
#387
b1011 0
0(
0!
#388
b1011 /
1(
1!
#389
b1011 0
0(
0!
#390
b1011 /
1(
1!
#391
b1011 0
0(
0!
#392
b1011 /
1(
1!
#393
b1011 0
0(
0!
#394
b1011 /
1(
1!
#395
b1011 0
0(
0!
#396
b1011 /
1(
1!
#397
b1011 0
0(
0!
#398
b1011 /
1(
1!
#399
b1011 0
0(
0!
#400
b1011 /
1(
1!
b101 #
b101 &
b10001 "
b10001 %
b1101 $
b1101 '
b10100 :
b10100 9
#401
b1011 0
0(
0!
#402
b1011 /
1(
1!
#403
b1011 0
0(
0!
#404
b1011 /
1(
1!
#405
b1011 0
0(
0!
#406
b1011 /
1(
1!
#407
b1011 0
0(
0!
#408
b1011 /
1(
1!
#409
b1011 0
0(
0!
#410
b1011 /
1(
1!
#411
b1011 0
0(
0!
#412
b1011 /
1(
1!
#413
b1011 0
0(
0!
#414
b1011 /
1(
1!
#415
b1011 0
0(
0!
#416
b1011 /
1(
1!
#417
b1011 0
0(
0!
#418
b1011 /
1(
1!
#419
b1011 0
0(
0!
#420
b1011 /
1(
1!
#421
b1011 0
0(
0!
#422
b1011 /
1(
1!
#423
b1011 0
0(
0!
#424
b1011 /
1(
1!
#425
b1011 0
0(
0!
#426
b1011 /
1(
1!
#427
b1011 0
0(
0!
#428
b1011 /
1(
1!
#429
b1011 0
0(
0!
#430
b1011 /
1(
1!
#431
b1011 0
0(
0!
#432
b1011 /
1(
1!
#433
b1011 0
0(
0!
#434
b1011 /
1(
1!
#435
b1011 0
0(
0!
#436
b1011 /
1(
1!
#437
b1011 0
0(
0!
#438
b1011 /
1(
1!
#439
b1011 0
0(
0!
#440
b1011 /
1(
1!
#441
b1011 0
0(
0!
#442
b1011 /
1(
1!
#443
b1011 0
0(
0!
#444
b1011 /
1(
1!
#445
b1011 0
0(
0!
#446
b1011 /
1(
1!
#447
b1011 0
0(
0!
#448
b1011 /
1(
1!
#449
b1011 0
0(
0!
#450
b1011 /
1(
1!
#451
b1011 0
0(
0!
#452
b1011 /
1(
1!
#453
b1011 0
0(
0!
#454
b1011 /
1(
1!
#455
b1011 0
0(
0!
#456
b1011 /
1(
1!
#457
b1011 0
0(
0!
#458
b1011 /
1(
1!
#459
b1011 0
0(
0!
#460
b1011 /
1(
1!
#461
b1011 0
0(
0!
#462
b1011 /
1(
1!
#463
b1011 0
0(
0!
#464
b1011 /
1(
1!
#465
b1011 0
0(
0!
#466
b1011 /
1(
1!
#467
b1011 0
0(
0!
#468
b1011 /
1(
1!
#469
b1011 0
0(
0!
#470
b1011 /
1(
1!
#471
b1011 0
0(
0!
#472
b1011 /
1(
1!
#473
b1011 0
0(
0!
#474
b1011 /
1(
1!
#475
b1011 0
0(
0!
#476
b1011 /
1(
1!
#477
b1011 0
0(
0!
#478
b1011 /
1(
1!
#479
b1011 0
0(
0!
#480
b1011 /
1(
1!
#481
b1011 0
0(
0!
#482
b1011 /
1(
1!
#483
b1011 0
0(
0!
#484
b1011 /
1(
1!
#485
b1011 0
0(
0!
#486
b1011 /
1(
1!
#487
b1011 0
0(
0!
#488
b1011 /
1(
1!
#489
b1011 0
0(
0!
#490
b1011 /
1(
1!
#491
b1011 0
0(
0!
#492
b1011 /
1(
1!
#493
b1011 0
0(
0!
#494
b1011 /
1(
1!
#495
b1011 0
0(
0!
#496
b1011 /
1(
1!
#497
b1011 0
0(
0!
#498
b1011 /
1(
1!
#499
b1011 0
0(
0!
#500
b1011 /
1(
1!
b10100 2
b10100 1
